…
Let’s start with a for loop.

``` r
output = vector("list", length = 100)

for (i in 1:100) {
  
  output[[i]] = sim_mean_sd(sample_size = 30)
  
}

bind_rows(output)
```

    ## # A tibble: 100 × 2
    ##     mean    sd
    ##    <dbl> <dbl>
    ##  1  2.93  2.99
    ##  2  2.76  4.30
    ##  3  2.00  3.54
    ##  4  3.81  3.32
    ##  5  3.56  4.45
    ##  6  3.77  3.98
    ##  7  3.37  5.18
    ##  8  2.31  4.22
    ##  9  3.44  3.79
    ## 10  2.33  4.13
    ## # ℹ 90 more rows
…
